{
  "type": "service_account",
  "project_id": "api-5342197865268288146-643349",
  "private_key_id": "3592468d36288536a234c81273ae9fdb13811c2d",
  "private_key": "-----BEGIN PRIVATE KEY-----\nMIIEvQIBADANBgkqhkiG9w0BAQEFAASCBKcwggSjAgEAAoIBAQDt+hsvrKLX6KW8\nNScVKBT0FZuBP7Q1wy48W88Yax9rLfXZlI2OuQoW1wpO0gwTOLytdvqR6G1LPMBp\nUZqRdr7Xg5hREQON1NQtinuYuQau3LAWf+peVEll9shKjLk0GTbcOrPFBGZHHlEN\n0xHUx9hde7QlRrZl0+EaD3iGEhy0aatFDJB0x5XyjY287ql9kpJb3dLxk3oFFIhS\nhYA5+FYttZwISmKEiysQ8oEesLOYVT8nlRYOzzvpheQB6nqnzlTN66xfuK0V40ia\nNeljaTOVT8odLnFBNruIx3mZA1iLrr5jy0HQtQvRo3+v2nx8JNbgjWqOI9VJaPZA\nLTxu+5uRAgMBAAECggEAGfdzZfVRY3u4Mdwe4pkYCDYfXLAFyuP8NIvUAhcWO4yt\nScuC0rLwHePi9QzIUoSbWdYkqy0QV+hOGm/UDNFHK57pTNctaxlw+XMl31k5GHVu\nJVZZzWcnByAxZKkMQFoL+WXSXcoIGvR85aRFStFvk2u/EV4w4tWGt2A+x2pMhYbY\nUbwRlSg9pULw0bKbDVL6t0qhEr3nZ0eDawMYOmsjoVrQ4gm3JqpFUTnIv3n2T3J8\n3uWYJ5VT/TWmrjh9q6TzR5YRNTEXoG0T6GMhJRc321jt1Rd/VU+X07WLAqXwT/B1\nl4SKhMTrIVR77CSmSvs7U3H9WwNgoKk0zN9My25v3QKBgQD6JhXd+q3NDit0d8G5\nrmPOuQCXkGb93oe4IA2nNfCNhh+nk2/LW3tkWrZYoOUAXWq/A0Sg53u4f6W9pJkK\nfCUwT4Oa2gVfR+zc99bdL2xo4iWvdS4YL9S9ryo1gUDvds//WfEM3CkweD7E4cPL\nSYBUue/l4HQ0uR1Dz9yjEL515wKBgQDziyKKMd1BX8w9jDjCax9w0q32xmopaX9d\nFXz+g9IC/Vg6hUzRpISW8B5fyrPmuwNDIFLtCer1jtVOgABbXcsMDzzUlTDSh4U2\nIjV3PBnTqks/a9jPdnJPo/AmseByiXDAivmsTHQW+1O3T1/1H0Gn5Q5BzjOGNs29\nLPkU/gnDxwKBgQDrfek+JZ1zGrDcH1W4OS1q0o11IhNjUhhQxZQ04znH8glg2BL5\nzfC3BBMAEtAjbM5ubmQwWlwFz923T/pnfYIBHgoWQMOn9G1PhN65MckMYEH8EQPI\n71aHEB1ba4g3J5IeoYylf6ojIEBvVt7dRR/UI4ttzMV5UP/08/2RYdT75wKBgAEV\nyZ2cA0RbTOmpSkdzerxh8+x5jdeJZMvhYKExrSnePxpjpaf5d63EfB4pJQwOIUGX\nT0dHGAjoDgM/hsDhdhojpz27PHBzsiA/nsVdOzA6PgOWU2z5NiEstdE2Ua2w9xOk\niuA9pvbDP+g9LkxFS2GYH6wjYw9iByCkpqd1Sk3ZAoGAT2cuQyBd9iPn8g5kX2f8\n7lH2RdJAL+Cq2/b8iqDCN+jz9zsQEx70xFGlKeZWOzJDFzp0IJ/pFM/oWp8TUPOj\n5oXrL/rS6xV5S+AB32r6/vSUxE5IyyZbAVhcOP/Pr6P9cGBfZttDLmkDr3ZcFF+i\nopqahBmhXrWSXYRLKRa5eks=\n-----END PRIVATE KEY-----\n",
  "client_email": "cicd-buddyworks@api-5342197865268288146-643349.iam.gserviceaccount.com",
  "client_id": "113084233594608879903",
  "auth_uri": "https://accounts.google.com/o/oauth2/auth",
  "token_uri": "https://oauth2.googleapis.com/token",
  "auth_provider_x509_cert_url": "https://www.googleapis.com/oauth2/v1/certs",
  "client_x509_cert_url": "https://www.googleapis.com/robot/v1/metadata/x509/cicd-buddyworks%40api-5342197865268288146-643349.iam.gserviceaccount.com"
}
